{
	"ip_adress": "169.254.199.129",
	"port": "55000",
	"http_port": "127",

	"manufacturer": "SmartScan",
	"device": "Trio",
	"model": "Trio",
	"firmware_version": "4.1",
	"serial_number": "_TA 0000_",
	"hardware_id": "1.2",
	"other": "0",
	
	"bagscan": "1",
	"wait_time": "15",
	"BMP": "1",
	"contrast": "1.0",

	"COM_port": "3",
	"metal_wait_time": "15",
	"rad_wait_time": "15",
	"bomb_wait_time": "15"
}
